<?xml version="1.0" encoding="utf-8"?>
<!-- Generator: Adobe Illustrator 16.0.0, SVG Export Plug-In . SVG Version: 6.00 Build 0)  -->
<!DOCTYPE svg PUBLIC "-//W3C//DTD SVG 1.1//EN" "http://www.w3.org/Graphics/SVG/1.1/DTD/svg11.dtd">
<svg version="1.1" id="Layer_1" xmlns="http://www.w3.org/2000/svg" xmlns:xlink="http://www.w3.org/1999/xlink" x="0px" y="0px"
	 width="32px" height="32px" viewBox="0 0 32 32" enable-background="new 0 0 32 32" xml:space="preserve">
<g fill="#f93d53">
	<path d="M15.999,18.684c-0.428,0-0.756-0.3-0.783-0.711l-0.244-3.854v-0.004c0-0.496,0.433-1.051,1.012-1.051H16
		c0.02,0.001,0.494,0.011,0.786,0.336c0.161,0.18,0.235,0.417,0.216,0.705l-0.221,3.847C16.756,18.368,16.419,18.684,15.999,18.684z
		"/>
	<path d="M16,20.958c-0.551,0-1-0.435-1-0.97c0-0.532,0.449-0.969,1-0.969c0.277,0,0.542,0.115,0.729,0.316
		c0.172,0.186,0.263,0.426,0.254,0.678c0.011,0.221-0.074,0.438-0.237,0.614C16.553,20.835,16.275,20.958,16,20.958z"/>
	<path d="M10.478,23c-0.939,0-1.759-0.479-2.195-1.279c-0.396-0.73-0.378-1.597,0.051-2.316l5.524-9.202
		C14.303,9.45,15.104,9,16.001,9c0.897,0,1.698,0.449,2.142,1.202l5.525,9.196c0.424,0.709,0.441,1.57,0.045,2.302
		c-0.434,0.802-1.279,1.299-2.209,1.299L10.478,23L10.478,23z M15.998,10.233c-0.459,0-0.866,0.226-1.09,0.604l-5.522,9.199
		c-0.212,0.354-0.218,0.762-0.014,1.116c0.222,0.386,0.635,0.615,1.105,0.615h11.027c0.475,0,0.895-0.236,1.12-0.633
		c0.097-0.166,0.287-0.605-0.011-1.098l-5.528-9.207C16.866,10.457,16.459,10.233,15.998,10.233z"/>
</g>
</svg>
